%YAML 1.1
%TAG !u! tag:unity3d.com,2011:
--- !u!114 &11400000
MonoBehaviour:
  m_ObjectHideFlags: 0
  m_CorrespondingSourceObject: {fileID: 0}
  m_PrefabInstance: {fileID: 0}
  m_PrefabAsset: {fileID: 0}
  m_GameObject: {fileID: 0}
  m_Enabled: 1
  m_EditorHideFlags: 0
  m_Script: {fileID: 11500000, guid: 74594ac7c97fd4a33a4ca044bde2f35e, type: 3}
  m_Name: 27500
  m_EditorClassIdentifier: 
  productId: com.gcreate.csiapid27500
  type: 0
  coins: 27500
