%YAML 1.1
%TAG !u! tag:unity3d.com,2011:
--- !u!114 &11400000
MonoBehaviour:
  m_ObjectHideFlags: 0
  m_CorrespondingSourceObject: {fileID: 0}
  m_PrefabInstance: {fileID: 0}
  m_PrefabAsset: {fileID: 0}
  m_GameObject: {fileID: 0}
  m_Enabled: 1
  m_EditorHideFlags: 0
  m_Script: {fileID: 11500000, guid: 97841064e27c442f3b45f0e2079b716c, type: 3}
  m_Name: 10Crown
  m_EditorClassIdentifier: 
  type: 2
  particle: {fileID: 1978309707650864, guid: 0d5b2acf0cd20417c80c6715503f101f, type: 3}
  animationData:
    frames:
    - {fileID: 21300000, guid: dc715b9c019e63546a47671ef83e6505, type: 3}
    - {fileID: 21300000, guid: 7e0364d718594e54b82f81240f6987dc, type: 3}
    - {fileID: 21300000, guid: e74a877c3023d7a49922fa14eca16383, type: 3}
    - {fileID: 21300000, guid: 60de77693fee4b6469a433faab85f027, type: 3}
    - {fileID: 21300000, guid: a6fd8649660666e4a8cc5ee37dce72a9, type: 3}
    - {fileID: 21300000, guid: 3258bcdd69c2d4f41935b610b3227d43, type: 3}
    - {fileID: 21300000, guid: f797bb2bdda32ea47a97ceca25e52843, type: 3}
    - {fileID: 21300000, guid: 6b6f7752cffd7804cb556983f31d5c59, type: 3}
    - {fileID: 21300000, guid: e995f14fa12765e4fa702750c96d6436, type: 3}
    - {fileID: 21300000, guid: 4fab662e55d1b5141b5f13745b437758, type: 3}
    - {fileID: 21300000, guid: 4ee62ac6e672f8640a50873024562506, type: 3}
    - {fileID: 21300000, guid: 00d260eacc67345498b8f63130e07183, type: 3}
    - {fileID: 21300000, guid: 49b22bf0066cc584d8091ce7f5c4b781, type: 3}
    - {fileID: 21300000, guid: 9db1b0ed840637a4b9ac2757e59d7fc7, type: 3}
    - {fileID: 21300000, guid: 0904810a97f324442914960a16a0ed48, type: 3}
    - {fileID: 21300000, guid: f89bcfca9c5d6174283e58b04f3b1868, type: 3}
    - {fileID: 21300000, guid: 32b5cc00dec1801458bffc344d684693, type: 3}
    - {fileID: 21300000, guid: 1d7dfded2f888714bbdbd9a83bc22b31, type: 3}
    - {fileID: 21300000, guid: c57d98aaf5708014692a01dd4dca56a5, type: 3}
    - {fileID: 21300000, guid: e1114d590e3bf6f48b63c892bdcb9440, type: 3}
    - {fileID: 21300000, guid: ea260fe6b2715c94e8cb648e015c1b6c, type: 3}
    - {fileID: 21300000, guid: 14afc2a0b421f4a4c91eb1d01b15a27b, type: 3}
    - {fileID: 21300000, guid: 48b19b3aabe865b41bdc1cad7b3c7dae, type: 3}
    - {fileID: 21300000, guid: 28be164ac0a2f274692b32f97b75659a, type: 3}
    - {fileID: 21300000, guid: 83372aa09f0f4f44694b5b48eadd4311, type: 3}
    - {fileID: 21300000, guid: 92eb6030ce45d8741bcce0b007521d31, type: 3}
    - {fileID: 21300000, guid: 5b836e609d413ef4d8bd4c2f9d46d3b8, type: 3}
    - {fileID: 21300000, guid: c1f90eab493dc3b4b9ba8066b07014db, type: 3}
    - {fileID: 21300000, guid: d7013badef0a7aa4984051ac21876c8d, type: 3}
    - {fileID: 21300000, guid: b465ae2f80cf5684ca8bc105ca4be870, type: 3}
    - {fileID: 21300000, guid: 8d323b3ad6512af4095f4851ca5092d3, type: 3}
    - {fileID: 21300000, guid: 106ddb7c8abbbd244aaf3a7658183b67, type: 3}
    - {fileID: 21300000, guid: f335290ac5d835b439151c8390050f5c, type: 3}
    - {fileID: 21300000, guid: a8e850826bef3a94898fd578c31ad5c3, type: 3}
    - {fileID: 21300000, guid: 028661bba91c5d742bbe5b368ea4aeec, type: 3}
    - {fileID: 21300000, guid: 265a876f78f8e9c42a1d4123ab4e1782, type: 3}
    - {fileID: 21300000, guid: ae9e33fa2da9e1941bbbd8b4e67b8a1c, type: 3}
    - {fileID: 21300000, guid: d8df38a3000b58a48869ffa8be173646, type: 3}
    - {fileID: 21300000, guid: 42ae451cf71b0334d8925879bf62817b, type: 3}
    - {fileID: 21300000, guid: 16c0ab9b77cf2f24b816abe7b1914d1b, type: 3}
    - {fileID: 21300000, guid: 194a9359e337a76418f608233e3bf32a, type: 3}
    - {fileID: 21300000, guid: 4213adfbefe55b7489d44006d03fa9fc, type: 3}
    - {fileID: 21300000, guid: 0839564449077ae4baea00be7822dd29, type: 3}
    - {fileID: 21300000, guid: 139cdee801eb2e641b3934ec7b5c53eb, type: 3}
    duration: 1
    delay: 0
  sprite: {fileID: 21300000, guid: dc715b9c019e63546a47671ef83e6505, type: 3}
  rule:
    reward:
    - 0
    - 0
    - 0
    - 0
    - 0
    substitutesForWild: 0
