%YAML 1.1
%TAG !u! tag:unity3d.com,2011:
--- !u!114 &11400000
MonoBehaviour:
  m_ObjectHideFlags: 0
  m_CorrespondingSourceObject: {fileID: 0}
  m_PrefabInstance: {fileID: 0}
  m_PrefabAsset: {fileID: 0}
  m_GameObject: {fileID: 0}
  m_Enabled: 1
  m_EditorHideFlags: 0
  m_Script: {fileID: 11500000, guid: 97841064e27c442f3b45f0e2079b716c, type: 3}
  m_Name: 11Bar
  m_EditorClassIdentifier: 
  type: 1
  particle: {fileID: 1978309707650864, guid: 0d5b2acf0cd20417c80c6715503f101f, type: 3}
  animationData:
    frames:
    - {fileID: 21300000, guid: 89d3e8fc885c8bc4a960be5346b32f58, type: 3}
    - {fileID: 21300000, guid: af1c4d3f780e7af4793cfc0fbdcba117, type: 3}
    - {fileID: 21300000, guid: 55592cb61345f944d8f7c9f051e61b57, type: 3}
    - {fileID: 21300000, guid: 7903bf16b5a648944a0052fc8c2afff2, type: 3}
    - {fileID: 21300000, guid: 4d4c328e0cae93648a7eba1089b9fa48, type: 3}
    - {fileID: 21300000, guid: 05ada39e0c3407347851fbc7dd350599, type: 3}
    - {fileID: 21300000, guid: f3c6712309586944f96728c3c8c9dad4, type: 3}
    - {fileID: 21300000, guid: f246ecf367345e94686e2c08586337d0, type: 3}
    - {fileID: 21300000, guid: 11dea99a5a63a6f4f8fb687f02424f58, type: 3}
    - {fileID: 21300000, guid: f29fb35b236c9844fae323119fe4fa87, type: 3}
    - {fileID: 21300000, guid: 842662f7392992c4a926322d577d9733, type: 3}
    - {fileID: 21300000, guid: 6a2230ad64da8604e81f565f39605b9c, type: 3}
    - {fileID: 21300000, guid: 94fba0969d39eab40a6239a13934025b, type: 3}
    - {fileID: 21300000, guid: 76a499ce67a4a94458c16ba53198f975, type: 3}
    - {fileID: 21300000, guid: 4e987f04f3f5dc7429029327d65e869e, type: 3}
    - {fileID: 21300000, guid: 8bbe9825261f1a8489c2bf3a2de603f2, type: 3}
    - {fileID: 21300000, guid: 1ff8913eb102dcc40919dca5f74a5f90, type: 3}
    - {fileID: 21300000, guid: 4c435e28d4161e944a9e377880ed0cd7, type: 3}
    - {fileID: 21300000, guid: b63fb879d7fbdd144929739ada98d058, type: 3}
    - {fileID: 21300000, guid: 46bedf951091da046be339056f88cdb4, type: 3}
    - {fileID: 21300000, guid: 64a9caf337142ac45b56f23711c16ad4, type: 3}
    - {fileID: 21300000, guid: a709cc844b28a4343885d697396387af, type: 3}
    - {fileID: 21300000, guid: 88aaec5da0bd4324382d58985d1d298d, type: 3}
    - {fileID: 21300000, guid: 86578fbae8cf9574d9e6d3fa53042722, type: 3}
    - {fileID: 21300000, guid: 141c93b4acb6d8f4d8ad606f03d0be58, type: 3}
    - {fileID: 21300000, guid: 3b604e1b01317704eb9424b21acaf0e8, type: 3}
    - {fileID: 21300000, guid: b5ad6dd8d1be1964a841655a068dfa37, type: 3}
    - {fileID: 21300000, guid: 41bea62e012cee040844f64ff45bf02b, type: 3}
    - {fileID: 21300000, guid: 5cfc48501ea7c5c40a9b90563fe8cef3, type: 3}
    - {fileID: 21300000, guid: 19a79ba39e6886b44bfbc91a6911e108, type: 3}
    - {fileID: 21300000, guid: 125a64b1cae9b2c4a958b1b89d63d030, type: 3}
    - {fileID: 21300000, guid: ba07306ba368d6e40a95632186b9005c, type: 3}
    - {fileID: 21300000, guid: 36a29d9f6e4a8754daf0b51a37e1910b, type: 3}
    - {fileID: 21300000, guid: 89a82960f3e198442a6aa287cf950e10, type: 3}
    - {fileID: 21300000, guid: af8602e0d294aad44a3b62c0353993c7, type: 3}
    - {fileID: 21300000, guid: 7a98ba2d13f47244bb00aad154169c3d, type: 3}
    - {fileID: 21300000, guid: 790c382fbaaea9a41a6345b6bb96a0f6, type: 3}
    - {fileID: 21300000, guid: 2e0f200e536a06e458717fb8901ddfca, type: 3}
    - {fileID: 21300000, guid: 69c064209d9ab094a93dd7747a656606, type: 3}
    - {fileID: 21300000, guid: 54fcbf2b720b55d4fafc58d332402d42, type: 3}
    - {fileID: 21300000, guid: 48908759fd3d26b41b7f09cec585950b, type: 3}
    - {fileID: 21300000, guid: 062e888c5de03d14a8bec4eb1aa1fa51, type: 3}
    - {fileID: 21300000, guid: 39b17c065c7ba1147bb6c77a193dbc68, type: 3}
    - {fileID: 21300000, guid: c5f9a43d374263d4a99a0bbcaecf15be, type: 3}
    duration: 1
    delay: 0
  sprite: {fileID: 21300000, guid: 89d3e8fc885c8bc4a960be5346b32f58, type: 3}
  rule:
    reward:
    - 0
    - 20
    - 200
    - 1000
    - 5000
    substitutesForWild: 1
