%YAML 1.1
%TAG !u! tag:unity3d.com,2011:
--- !u!114 &11400000
MonoBehaviour:
  m_ObjectHideFlags: 0
  m_CorrespondingSourceObject: {fileID: 0}
  m_PrefabInstance: {fileID: 0}
  m_PrefabAsset: {fileID: 0}
  m_GameObject: {fileID: 0}
  m_Enabled: 1
  m_EditorHideFlags: 0
  m_Script: {fileID: 11500000, guid: 97841064e27c442f3b45f0e2079b716c, type: 3}
  m_Name: 2Bell
  m_EditorClassIdentifier: 
  type: 4
  particle: {fileID: 1978309707650864, guid: 0d5b2acf0cd20417c80c6715503f101f, type: 3}
  animationData:
    frames:
    - {fileID: 21300000, guid: d68c7afba8287ad448e6cf0257ee6e5a, type: 3}
    - {fileID: 21300000, guid: ff8391872074be544b043950799b59f9, type: 3}
    - {fileID: 21300000, guid: 977f2d5d9590e2c4aaa1cddb05e30731, type: 3}
    - {fileID: 21300000, guid: d4a7cd84b6af6c84d91a1b88cfa3fac2, type: 3}
    - {fileID: 21300000, guid: e8038f1372e2deb48b096af8b1705600, type: 3}
    - {fileID: 21300000, guid: 0980b484f0f5e974d8430fb635abd4d1, type: 3}
    - {fileID: 21300000, guid: ea1ab346eb58d9b4dbe89446f8054b7f, type: 3}
    - {fileID: 21300000, guid: 06328411ddf9f2f4b9640816134d9965, type: 3}
    - {fileID: 21300000, guid: 1d413348aaf3fe3489720f4ba8090137, type: 3}
    - {fileID: 21300000, guid: 0ef2c905795e69e4897cad288ed3af18, type: 3}
    - {fileID: 21300000, guid: b5e69509ef022964c8a59cc9513afcfe, type: 3}
    - {fileID: 21300000, guid: 06d20c5b8b5098f43aa4ecfc291260ff, type: 3}
    - {fileID: 21300000, guid: ab748fa9e1226324082deab3cd8e5584, type: 3}
    - {fileID: 21300000, guid: 59b3490864fd10f4bae93caa814ab19e, type: 3}
    - {fileID: 21300000, guid: badebabf57db65c4b85abc8aed3b25c8, type: 3}
    - {fileID: 21300000, guid: b83d65620bc7ef3478065d95f6e1ccc5, type: 3}
    - {fileID: 21300000, guid: dcc52ef7a90fd7a4fa12abba60a29b3c, type: 3}
    - {fileID: 21300000, guid: 8fba7c28ba5c2bb44a51483242369f1f, type: 3}
    - {fileID: 21300000, guid: 9c263681f5faf1747b438412a8583666, type: 3}
    - {fileID: 21300000, guid: aa9308590c6b6134fbc1439f9aae9a44, type: 3}
    - {fileID: 21300000, guid: 6da218efec5de644389e23ee600ba907, type: 3}
    - {fileID: 21300000, guid: cdcbf53727b66be44a93a9d42de81481, type: 3}
    - {fileID: 21300000, guid: 8a808e80734823f48840b6c970a62717, type: 3}
    - {fileID: 21300000, guid: 555eb7abfb713114ab596b19345d0886, type: 3}
    - {fileID: 21300000, guid: 5c73f134ff7e5c7408199b66b7c238f0, type: 3}
    - {fileID: 21300000, guid: 79b1e350ac2c3b84e87678d927c68f15, type: 3}
    - {fileID: 21300000, guid: 9eeeabd6b672d1b47b8ab7a8a35a2a47, type: 3}
    - {fileID: 21300000, guid: fb07922d510734948b92840e9c515ee1, type: 3}
    - {fileID: 21300000, guid: 67f9e0f9fd6af5c4bb19b81ef6eef8ee, type: 3}
    - {fileID: 21300000, guid: 908e444b2633c374887f00fe7db626c1, type: 3}
    - {fileID: 21300000, guid: 626fc8609cce4754b81e15188f3a5316, type: 3}
    - {fileID: 21300000, guid: 59be6083f50ae8e4a8543960d8619cf3, type: 3}
    - {fileID: 21300000, guid: e85efd2f932e31844912d4264bea9488, type: 3}
    - {fileID: 21300000, guid: 7c625fad26fafa048ab594b99816b3ba, type: 3}
    - {fileID: 21300000, guid: e8d16f99943b1a3479104b2435a45825, type: 3}
    - {fileID: 21300000, guid: f9e177133f3570d49beefe0b3942f293, type: 3}
    - {fileID: 21300000, guid: 13f6466b65f8f8b45a17c8252be80369, type: 3}
    - {fileID: 21300000, guid: 31c5b78e2eebf344ebd62a52d70bf3ff, type: 3}
    - {fileID: 21300000, guid: edc9180ae80abe24dbeb4ba71a617d29, type: 3}
    - {fileID: 21300000, guid: 48a51da73579ac847832e6226e64c62f, type: 3}
    - {fileID: 21300000, guid: 27f9e82213503b54b8af443421bbf36d, type: 3}
    - {fileID: 21300000, guid: ed94e42bdade3a1438053247163a05ed, type: 3}
    - {fileID: 21300000, guid: 00f0405527933774493b6d8358bd7299, type: 3}
    - {fileID: 21300000, guid: 74119d4e0a8e5614bb762c7ae7fa92a5, type: 3}
    duration: 1
    delay: 0
  sprite: {fileID: 21300000, guid: d68c7afba8287ad448e6cf0257ee6e5a, type: 3}
  rule:
    reward:
    - 0
    - 0
    - 8
    - 25
    - 70
    substitutesForWild: 1
