%YAML 1.1
%TAG !u! tag:unity3d.com,2011:
--- !u!114 &11400000
MonoBehaviour:
  m_ObjectHideFlags: 0
  m_CorrespondingSourceObject: {fileID: 0}
  m_PrefabInstance: {fileID: 0}
  m_PrefabAsset: {fileID: 0}
  m_GameObject: {fileID: 0}
  m_Enabled: 1
  m_EditorHideFlags: 0
  m_Script: {fileID: 11500000, guid: 97841064e27c442f3b45f0e2079b716c, type: 3}
  m_Name: 4Club
  m_EditorClassIdentifier: 
  type: 6
  particle: {fileID: 1978309707650864, guid: 0d5b2acf0cd20417c80c6715503f101f, type: 3}
  animationData:
    frames:
    - {fileID: 21300000, guid: d45d502ba060d45459b3bf9ee7207941, type: 3}
    - {fileID: 21300000, guid: 48a17705d351be741a86309824ff5d03, type: 3}
    - {fileID: 21300000, guid: 9018055133a7ec34f9fd597d6addde28, type: 3}
    - {fileID: 21300000, guid: 499471c9c6436454c8cf1fa5c7eb02d6, type: 3}
    - {fileID: 21300000, guid: bd8e7564d211783488d57b6e98a2eb4b, type: 3}
    - {fileID: 21300000, guid: 75d2fe36255c4c04981e3c2d5b3d6c86, type: 3}
    - {fileID: 21300000, guid: fd7bd5f387e2b3a4fa2cbabd4ac0c982, type: 3}
    - {fileID: 21300000, guid: 022373d9d789ebe42a66a709f840d836, type: 3}
    - {fileID: 21300000, guid: c119c8151ef0e22428f7a095981a8e56, type: 3}
    - {fileID: 21300000, guid: eb9f6069b56a516469d1c70d534129c3, type: 3}
    - {fileID: 21300000, guid: 8f58ecd73196c0d448c0a63d412fd0bf, type: 3}
    - {fileID: 21300000, guid: 30e60d56e55759744a49f63babf78c4b, type: 3}
    - {fileID: 21300000, guid: e124960d3768ee64a85e30dff469517b, type: 3}
    - {fileID: 21300000, guid: 2ba88305bbbe4784fa912179301dea57, type: 3}
    - {fileID: 21300000, guid: 735214bcd54f4ed4aaa51234bd32c54b, type: 3}
    - {fileID: 21300000, guid: 1c7928789b53ae648a73ee9b209ede58, type: 3}
    - {fileID: 21300000, guid: a9129c8aa49d2964288fdfca5f0dbbf8, type: 3}
    - {fileID: 21300000, guid: 27de9068c40a94249a5abe33019c60d7, type: 3}
    - {fileID: 21300000, guid: 8b0fbd12bc19f124cad0a7fc33bb55e4, type: 3}
    - {fileID: 21300000, guid: c86497ab990543247b183bbd6488de38, type: 3}
    - {fileID: 21300000, guid: 42254a47d5c19724fa64e884b9f484b3, type: 3}
    - {fileID: 21300000, guid: 2b8874393e866244ab1af4435ecd3150, type: 3}
    - {fileID: 21300000, guid: 933a2842195b8e946ae0008be779d9a3, type: 3}
    - {fileID: 21300000, guid: 034fba5b381f34d47a6ee1aa903cb1d7, type: 3}
    - {fileID: 21300000, guid: 0d3ae12d1b2b7244bb9765247a3c2015, type: 3}
    - {fileID: 21300000, guid: 2f700a1cac4638942be686e482681686, type: 3}
    - {fileID: 21300000, guid: 746c6f908a83fff49bb56b5ed50e0624, type: 3}
    - {fileID: 21300000, guid: efbbc0acfcac6274f81c68a9e1cb3bbf, type: 3}
    - {fileID: 21300000, guid: 3c2d5e6c1cb78034984515e09f5a338c, type: 3}
    - {fileID: 21300000, guid: 9e92634a0093b22408c2756921f173cb, type: 3}
    - {fileID: 21300000, guid: d9a46200ba7952242b5f1293b26f5f9d, type: 3}
    - {fileID: 21300000, guid: 3aa324a719df3da4787d63356f6da86a, type: 3}
    - {fileID: 21300000, guid: 9ea6fa495909bb54f9fc8635d02a57ec, type: 3}
    - {fileID: 21300000, guid: 6554330d960526840a8e3df5fce49645, type: 3}
    - {fileID: 21300000, guid: a11b084baf4dc1d428c73c91101e65ab, type: 3}
    - {fileID: 21300000, guid: e2463d55ff8b312478b0bb88c7af3e05, type: 3}
    - {fileID: 21300000, guid: c93db9dc8986e8148abe0a2e33aea337, type: 3}
    - {fileID: 21300000, guid: 4b10a95280aefef4eba7f61c19d200b6, type: 3}
    - {fileID: 21300000, guid: f85672f9f37a2b84a9e2f24e80c4cb70, type: 3}
    - {fileID: 21300000, guid: 814c18188e0f66d4c848f1d6201bb982, type: 3}
    - {fileID: 21300000, guid: 2c265d7f1dbf9c34ab917d3c76191be0, type: 3}
    - {fileID: 21300000, guid: b248d7b92b300314392951fbebc6aa34, type: 3}
    - {fileID: 21300000, guid: fc2d14d72130a564eac70e192b13d976, type: 3}
    - {fileID: 21300000, guid: 564fbb4316800b34bb5a9473eb29df63, type: 3}
    duration: 1
    delay: 0
  sprite: {fileID: 21300000, guid: d45d502ba060d45459b3bf9ee7207941, type: 3}
  rule:
    reward:
    - 0
    - 0
    - 12
    - 75
    - 125
    substitutesForWild: 1
